{
    "user_roles": {
        "alice": [
            "iam.admin",
            "guest"
        ],
        "bob": [
            "iam.admin",
            "audit.admin"
        ],
        "eve": [
            "platform.admin"
        ],
        "adam": [
            "guest"
        ]
    },
    "roles": [
        "iam.admin",
        "guest",
        "audit.admin",
        "platform.admin"
    ],
    "role_grants": {
        "iam.admin": [
            {
                "action": "read",
                "type": "iam"
            },
            {
                "action": "write",
                "type": "iam"
            },
            {
                "action": "update",
                "type": "iam"
            }
        ],
        "audit.admin": [
            {
                "action": "read",
                "type": "audit"
            },
            {
                "action": "write",
                "type": "audit"
            },
            {
                "action": "update",
                "type": "audit"
            }
        ],
        "platform.admin": [
            {
                "action": "read",
                "type": "platform"
            },
            {
                "action": "write",
                "type": "platform"
            },
            {
                "action": "update",
                "type": "platform"
            }
        ],
        "guest": [
            {
                "action": "read",
                "type": "iam"
            }
        ]
    }
}
